{
  "meta": {
    "pagination": {
      "total": 2459,
      "pages": 123,
      "page": 1,
      "limit": 20,
      "links": {
        "previous": null,
        "current": "https://gorest.co.in/public/v1/users?page=1",
        "next": "https://gorest.co.in/public/v1/users?page=2"
      }
    }
  },
  "data": [
    {
      "id": 4917,
      "name": "Tenali Ramakdeedededededqqqqqqqqq",
      "email": "tenaliqqqq.ra555555@15ce.com",
      "gender": "male",
      "status": "active"
    },
    {
      "id": 2545,
      "name": "Menka Arora",
      "email": "arora_menka@conroy.io",
      "gender": "male",
      "status": "active"
    },
    {
      "id": 2544,
      "name": "Hiranmaya Marar",
      "email": "marar_hiranmaya@deckow-fadel.biz",
      "gender": "male",
      "status": "inactive"
    },
    {
      "id": 2513,
      "name": "Kumar Sharma",
      "email": "sharma_kumar@frami-mcclure.info",
      "gender": "female",
      "status": "active"
    },
    {
      "id": 2512,
      "name": "Jagathi Kakkar",
      "email": "jagathi_kakkar@ohara-abshire.info",
      "gender": "female",
      "status": "inactive"
    },
    {
      "id": 2511,
      "name": "Prema Verma",
      "email": "prema_verma@rath-prohaska.io",
      "gender": "female",
      "status": "inactive"
    },
    {
      "id": 2510,
      "name": "Devvrat Desai",
      "email": "desai_devvrat@feil.io",
      "gender": "male",
      "status": "active"
    },
    {
      "id": 2508,
      "name": "Dayaamay Adiga",
      "email": "adiga_dayaamay@cruickshank.com",
      "gender": "female",
      "status": "inactive"
    },
    {
      "id": 2507,
      "name": "Abhirath Ahluwalia",
      "email": "ahluwalia_abhirath@farrell.info",
      "gender": "female",
      "status": "inactive"
    },
    {
      "id": 2506,
      "name": "Anandamayi Butt",
      "email": "butt_anandamayi@quitzon.biz",
      "gender": "female",
      "status": "active"
    },
    {
      "id": 2505,
      "name": "Deepankar Desai",
      "email": "desai_deepankar@hagenes.io",
      "gender": "female",
      "status": "inactive"
    },
    {
      "id": 2496,
      "name": "Dharitri Nair",
      "email": "nair_dharitri@thiel-reilly.info",
      "gender": "male",
      "status": "active"
    },
    {
      "id": 2495,
      "name": "Inder Bharadwaj",
      "email": "bharadwaj_inder@swaniawski.name",
      "gender": "female",
      "status": "inactive"
    },
    {
      "id": 2485,
      "name": "Deepankar Nehru II",
      "email": "deepankar_nehru_ii@schuster.io",
      "gender": "male",
      "status": "inactive"
    },
    {
      "id": 2484,
      "name": "Chandraketu Mishra",
      "email": "mishra_chandraketu@mclaughlin.co",
      "gender": "male",
      "status": "inactive"
    },
    {
      "id": 2483,
      "name": "Chandraayan Namboothiri",
      "email": "namboothiri_chandraayan@ullrich.biz",
      "gender": "female",
      "status": "active"
    },
    {
      "id": 2482,
      "name": "Bhasvan Bandopadhyay",
      "email": "bandopadhyay_bhasvan@stehr.name",
      "gender": "male",
      "status": "inactive"
    },
    {
      "id": 2481,
      "name": "Tara Singh",
      "email": "singh_tara@bosco.name",
      "gender": "female",
      "status": "inactive"
    },
    {
      "id": 2480,
      "name": "Bankim Bandopadhyay",
      "email": "bandopadhyay_bankim@kassulke.biz",
      "gender": "female",
      "status": "active"
    },
    {
      "id": 2479,
      "name": "Fr. Param Kocchar",
      "email": "fr_param_kocchar@hickle-friesen.net",
      "gender": "female",
      "status": "inactive"
    }
  ]
}